[
  {
    "name": "Joe Smith",
    "email": "jsmith@example.com",
    "age": 40,
    "admin": false
  },
  {
    "name": "Jen Ford",
    "email": "jford@example.com",
    "age": 45,
    "admin": true
  }
]
